1 10 20
100 200 125
201 210 89
900 1000 174
400 10000 262
100000 130000 354
800000 805000 406
900 800 179
10 1 20
2 1 2
1 1 1
50000 60000 340
999999 999999 259
999999 999998 259
69420 69420 144
42069 69420 340
69420 42069 340
42069 42069 58
1000 2000 182
2000 1000 182
10000 10078 211
999999 950000 458
72457 275456 443
860000 869000 388
120 12000 268
420 69 144
4896 30421 308
500000 506000 426
23958 8473 282
666 666 114
999 900 174
700000 690000 442
12478 1000 268
486 42 144
12760 1887 268
2001 1942 175
80 20 116
1 777 171
3060 3080 155
42 9320 262
5600 7500 262
70707 70808 175
100 300 128
999000 999999 396
999910 999920 259
43 21 112
8000 2000 262
7013 123 262
8888 7777 252
7777 666 262
13498 348 276
1 10000 262
6009 245 238
24987 1000 282
6000 60000 340
30000 3000 308
800 2419 183
67092 6482 340
81093 81092 38
1111 111 179
111 11 119
11 1 20
1 1111 179
555 55555 340
600000 610000 403
601000 600000 372
59874 57684 273
670000 670010 261
980 1080 169
1920 1080 182
4013 3014 238
1 4 8
4 1 8
1978 2001 144
2001 1978 144
100000 99999 227
101000 101100 297
51345 69831 340
10001 10001 180
50000 60000 340
60000 70000 335
70000 80000 351
80000 90000 333
90000 100000 333
100000 200000 383
200000 210000 373
210000 200000 373
200000 199000 329
800 2355 183
61350 61340 242
900000 900000 158
900000 900001 189
900001 900020 233
900020 900001 233
900001 900000 189
1777 2999 217
48080 84040 351
84010 81420 320
84020 81410 320
100 100 26
