...............
----------------------------------------------------------------------
Ran 15 tests in 0.080s

OK
Name             Stmts   Miss Branch BrPart  Cover   Missing
------------------------------------------------------------
Collatz.py          40      0     14      0   100%
TestCollatz.py      66      0      0      0   100%
------------------------------------------------------------
TOTAL              106      0     14      0   100%
