1 10 20
100 200 125
201 210 89
900 1000 174
1 1 1
472 38 144
364 670 145
704 519 171
938 754 179
624 616 132
171 491 144
644 848 171
444 249 144
397 723 171
834 687 171
483 232 144
54 286 128
66 393 144
274 864 171
421 504 142
854 803 135
731 762 140
509 557 137
89 788 171
531 626 137
297 80 128
110 508 144
620 830 171
293 954 179
150 631 144
762 395 171
776 786 122
647 435 142
151 570 144
988 88 179
795 354 171
358 169 144
502 482 142
642 901 179
562 919 179
871 240 179
305 391 144
536 64 144
527 129 144
210 832 171
351 951 179
763 258 171
116 912 179
862 370 171
723 301 171
302 192 128
642 607 132
793 331 171
648 487 142
694 597 145
4228 5563 215
3859 2346 238
2893 1323 209
7845 22 262
1544 5551 238
3666 9855 262
6090 1396 238
3587 3992 238
5397 136 238
3580 5224 238
906 6545 262
3796 605 238
8757 8405 203
2448 1345 183
4057 6405 262
6680 1158 262
6149 8583 262
9692 5942 262
4059 7605 262
9776 7721 260
1418 9936 262
6431 6253 200
2466 8473 262
2534 9774 262
8275 7938 252
6889 9575 260
5106 6606 262
1241 7100 262
8589 3817 262
234 5323 238
6190 8774 257
7850 670 262
1978 1246 180
8351 8799 234
3866 8114 262
8369 1796 262
5322 4992 192
3914 3668 238
7391 6774 257
4644 8316 262
2645 7205 262
4539 6354 262
5179 537 238
5978 4784 236
7726 3674 262
4067 4868 215
4768 7922 262
5183 1726 238
5736 9291 262
5772 1510 238
55286 62986 335
42594 80857 351
59513 41077 340
14655 96957 351
18595 71807 340
61154 47655 340
52770 94980 351
41770 77930 351
72304 35489 340
80896 45533 351
72942 54770 335
58723 7223 340
10554 87726 351
81918 59534 351
25688 79875 351
54189 77950 351
10346 9699 242
46451 55899 340
37193 25161 324
67226 21590 340
80743 82000 320
12821 53203 340
42702 98644 351
28279 65073 340
92290 94285 315
63945 29493 340
72495 57441 335
56095 2570 340
11331 81659 351
2989 10604 262
89983 1241 351
30794 25998 308
52127 36918 314
81770 18152 351
24524 42860 324
60469 98693 351
59681 12126 340
53862 32939 340
9216 73118 340
18735 18486 261
4504 69261 340
7983 87982 351
7617 471 262
32132 40964 324
87270 43164 351
28409 73810 340
9479 86401 351
61858 84698 351
18047 73966 340
34912 34353 280
449576 986713 525
723182 695728 504
820868 371022 509
423665 301349 449
852131 807516 525
339600 754848 509
274390 393011 441
394025 942734 525
270140 801279 509
427707 799823 509
917204 600883 525
162936 180941 365
358085 493467 449
166886 659532 509
26406 881053 525
560077 936339 525
30259 416429 449
505016 168788 449
93917 724058 509
930919 906843 476
414382 238068 449
56850 251655 443
437792 181699 449
711261 6845 509
878988 217356 525
912416 212892 525
848297 339234 525
282150 698220 509
496731 159163 449
372729 763357 509
422497 197636 449
977052 953881 458
518311 304922 470
63204 144210 375
488999 48352 449
857816 231212 525
75328 805676 509
417382 962938 525
501034 486325 426
525475 681152 509
294155 913261 525
321898 97851 443
636957 270597 509
779478 21920 509
225061 228014 368
950294 561970 525
199009 131369 383
946697 561778 525
855669 627262 525
177841 307015 443
999999 999999 259
