.......................
----------------------------------------------------------------------
Ran 23 tests in 23.070s

OK
Name             Stmts   Miss Branch BrPart  Cover   Missing
------------------------------------------------------------
Collatz.py          37      0     16      0   100%
TestCollatz.py      95      0      0      0   100%
------------------------------------------------------------
TOTAL              132      0     16      0   100%
